[
  {
    "team": "team 1",
    "winrate": 45.57,
    "jugadores": [
      {
        "name": "Pol Muñoz",
        "total_kills": 99,
        "total_deaths": 1,
        "total_assistances": 99,
        "nationality": "korea",
        "main_position": "Top",
        "main_legends": [
          {
            "name": "Legend 19"
          }
        ]
      },
      {
        "name": "Dani Casado",
        "total_kills": 98,
        "total_deaths": 1,
        "total_assistances": 98,
        "nationality": "EEUU",
        "main_position": "Jungle",
        "main_legends": [
          {
            "name": "Legend 64"
          }
        ]
      },
      {
        "name": "Marc Aynés",
        "total_kills": 97,
        "total_deaths": 1,
        "total_assistances": 98,
        "nationality": "EEUU",
        "main_position": "Mid",
        "main_legends": [
          {
            "name": "Legend 37"
          }
        ]
      },
      {
        "name": "Faker",
        "total_kills": 35,
        "total_deaths": 73,
        "total_assistances": 35,
        "nationality": "korea",
        "main_position": "ADC",
        "main_legends": [
          {
            "name": "Legend 83"
          }
        ]
      },
      {
        "name": "Alexelcapo",
        "total_kills": 20,
        "total_deaths": 17,
        "total_assistances": 62,
        "nationality": "korea",
        "main_position": "Support",
        "main_legends": [
          {
            "name": "Legend 52"
          }
        ]
      }
    ]
  },
  {
    "team": "team 5",
    "winrate": 94.69,
    "jugadores": [
      {
        "name": "daniel",
        "total_kills": 98,
        "total_deaths": 44,
        "total_assistances": 78,
        "nationality": "Canada",
        "main_position": "Top",
        "main_legends": [
          {
            "name": "Legend 66"
          }
        ]
      },
      {
        "name": "pol",
        "total_kills": 27,
        "total_deaths": 1,
        "total_assistances": 85,
        "nationality": "Francia",
        "main_position": "Jungle",
        "main_legends": [
          {
            "name": "Legend 96"
          }
        ]
      },
      {
        "name": "marc",
        "total_kills": 25,
        "total_deaths": 38,
        "total_assistances": 63,
        "nationality": "Francia",
        "main_position": "Mid",
        "main_legends": [
          {
            "name": "Legend 12"
          }
        ]
      },
      {
        "name": "zacarias",
        "total_kills": 75,
        "total_deaths": 46,
        "total_assistances": 89,
        "nationality": "Francia",
        "main_position": "ADC",
        "main_legends": [
          {
            "name": "Legend 4"
          }
        ]
      },
      {
        "name": "gerard",
        "total_kills": 50,
        "total_deaths": 72,
        "total_assistances": 54,
        "nationality": "Francia",
        "main_position": "Support",
        "main_legends": [
          {
            "name": "Legend 23"
          }
        ]
      }
    ]
  },
  {
    "team": "team 6",
    "winrate": 38.87,
    "jugadores": [
      {
        "name": "ramon",
        "total_kills": 90,
        "total_deaths": 81,
        "total_assistances": 18,
        "nationality": "EEUU",
        "main_position": "Top",
        "main_legends": [
          {
            "name": "Legend 57"
          }
        ]
      },
      {
        "name": "Anna",
        "total_kills": 4,
        "total_deaths": 98,
        "total_assistances": 13,
        "nationality": "España",
        "main_position": "Jungle",
        "main_legends": [
          {
            "name": "Legend 52"
          }
        ]
      },
      {
        "name": "ana",
        "total_kills": 42,
        "total_deaths": 57,
        "total_assistances": 74,
        "nationality": "Canada",
        "main_position": "Mid",
        "main_legends": [
          {
            "name": "Legend 95"
          }
        ]
      },
      {
        "name": "pikachu",
        "total_kills": 72,
        "total_deaths": 93,
        "total_assistances": 97,
        "nationality": "España",
        "main_position": "ADC",
        "main_legends": [
          {
            "name": "Legend 15"
          }
        ]
      },
      {
        "name": "ocelote",
        "total_kills": 12,
        "total_deaths": 82,
        "total_assistances": 53,
        "nationality": "Canada",
        "main_position": "Support",
        "main_legends": [
          {
            "name": "Legend 44"
          }
        ]
      }
    ]
  },
  {
    "team": "team 7",
    "winrate": 35.61,
    "jugadores": [
      {
        "name": "XPEKE",
        "total_kills": 11,
        "total_deaths": 4,
        "total_assistances": 17,
        "nationality": "EEUU",
        "main_position": "Top",
        "main_legends": [
          {
            "name": "Legend 36"
          }
        ]
      },
      {
        "name": "andreu",
        "total_kills": 88,
        "total_deaths": 83,
        "total_assistances": 80,
        "nationality": "Canada",
        "main_position": "Jungle",
        "main_legends": [
          {
            "name": "Legend 21"
          }
        ]
      },
      {
        "name": "alex",
        "total_kills": 35,
        "total_deaths": 88,
        "total_assistances": 12,
        "nationality": "korea",
        "main_position": "Mid",
        "main_legends": [
          {
            "name": "Legend 28"
          }
        ]
      },
      {
        "name": "alfredo",
        "total_kills": 14,
        "total_deaths": 1,
        "total_assistances": 38,
        "nationality": "España",
        "main_position": "ADC",
        "main_legends": [
          {
            "name": "Legend 49"
          }
        ]
      },
      {
        "name": "pesao",
        "total_kills": 9,
        "total_deaths": 15,
        "total_assistances": 31,
        "nationality": "EEUU",
        "main_position": "Support",
        "main_legends": [
          {
            "name": "Legend 47"
          }
        ]
      }
    ]
  },
  {
    "team": "team 9",
    "winrate": 79.52,
    "jugadores": [
      {
        "name": "rekkles",
        "total_kills": 79,
        "total_deaths": 40,
        "total_assistances": 43,
        "nationality": "korea",
        "main_position": "Top",
        "main_legends": [
          {
            "name": "Legend 79"
          }
        ]
      },
      {
        "name": "perkz",
        "total_kills": 31,
        "total_deaths": 36,
        "total_assistances": 63,
        "nationality": "Canada",
        "main_position": "Jungle",
        "main_legends": [
          {
            "name": "Legend 32"
          }
        ]
      },
      {
        "name": "doublelift",
        "total_kills": 43,
        "total_deaths": 10,
        "total_assistances": 80,
        "nationality": "España",
        "main_position": "Mid",
        "main_legends": [
          {
            "name": "Legend 55"
          }
        ]
      },
      {
        "name": "mithy",
        "total_kills": 33,
        "total_deaths": 14,
        "total_assistances": 58,
        "nationality": "Francia",
        "main_position": "ADC",
        "main_legends": [
          {
            "name": "Legend 19"
          }
        ]
      },
      {
        "name": "jiizuke",
        "total_kills": 95,
        "total_deaths": 40,
        "total_assistances": 86,
        "nationality": "Francia",
        "main_position": "Support",
        "main_legends": [
          {
            "name": "Legend 53"
          }
        ]
      }
    ]
  }
]